{
    "repository": {
      "issues": {
        "totalCount": 118,
        "pageInfo": {
          "endCursor": "Y3Vyc29yOnYyOpK5MjAxOC0wMS0wN1QxMDozMDozOC0wNTowMM4RFNG/",
          "hasNextPage": true
        },
        "nodes": [
          {
            "author": {
              "login": "keyiis"
            },
            "publishedAt": "2018-05-08T03:17:07Z",
            "id": "MDU6SXNzdWUzMjEwMjgzNjg=",
            "number": 3647
          },
          {
            "author": {
              "login": "anuradhag"
            },
            "publishedAt": "2018-05-07T07:31:24Z",
            "id": "MDU6SXNzdWUzMjA3MDIzMTE=",
            "number": 3646
          },
          {
            "author": {
              "login": "Jtaks"
            },
            "publishedAt": "2018-04-20T22:24:50Z",
            "id": "MDU6SXNzdWUzMTY0Mjg1OTY=",
            "number": 3630
          },
          {
            "author": {
              "login": "teddy-owen"
            },
            "publishedAt": "2018-03-20T03:33:48Z",
            "id": "MDU6SXNzdWUzMDY3MTcxODc=",
            "number": 3597
          },
          {
            "author": {
              "login": "kibertoad"
            },
            "publishedAt": "2018-02-11T23:21:32Z",
            "id": "MDU6SXNzdWUyOTYyMzY3NzA=",
            "number": 3560
          },
          {
            "author": {
              "login": "WORMSS"
            },
            "publishedAt": "2018-02-07T17:09:37Z",
            "id": "MDU6SXNzdWUyOTUyMTg4OTg=",
            "number": 3555
          },
          {
            "author": {
              "login": "do-web"
            },
            "publishedAt": "2018-02-06T11:15:12Z",
            "id": "MDU6SXNzdWUyOTQ3MjEyNzM=",
            "number": 3553
          },
          {
            "author": {
              "login": "Ferrus91"
            },
            "publishedAt": "2018-02-02T09:17:17Z",
            "id": "MDU6SXNzdWUyOTM4MjEyNDg=",
            "number": 3550
          },
          {
            "author": {
              "login": "bradvogel"
            },
            "publishedAt": "2018-01-15T22:27:55Z",
            "id": "MDU6SXNzdWUyODg3MzIzNjc=",
            "number": 3536
          },
          {
            "author": {
              "login": "Drulac"
            },
            "publishedAt": "2018-01-07T15:30:38Z",
            "id": "MDU6SXNzdWUyODY1NzcwODc=",
            "number": 3527
          }
        ]
      }
    }
}